#OEB_ALL = 1
#register: 230, data: 0x10, bitmask: 0xFF
00:e610FF
#DIS_LOL = 1
#register: 241, data: 0xE5, bitmask: 0xFF
01:f1E5FF
#register: 6, data: 0x08, bitmask: 0x1D
02:06081d
#register: 27, data: 0x70, bitmask: 0x80
03:1b7080
#register: 28, data: 0x0B, bitmask: 0xFF
04:1c0bff
#register: 29, data: 0x08, bitmask: 0xFF
05:1d08ff
#register: 30, data: 0xB0, bitmask: 0xFF
06:1eb0ff
#register: 31, data: 0xC0, bitmask: 0xFF
07:1fc0ff
#register: 32, data: 0xC0, bitmask: 0xFF
08:20c0ff
#register: 33, data: 0xC0, bitmask: 0xFF
09:21c0ff
#register: 34, data: 0xC0, bitmask: 0xFF
0a:22c0ff
#register: 35, data: 0xAA, bitmask: 0xFF
0b:23aaff
#register: 36, data: 0x06, bitmask: 0x1F
0c:24061f
#register: 37, data: 0x06, bitmask: 0x1F
0d:25061f
#register: 38, data: 0x06, bitmask: 0x1F
0e:26061f
#register: 39, data: 0x06, bitmask: 0x1F
0f:27061f
#register: 40, data: 0x84, bitmask: 0xFF
10:2884ff
#register: 41, data: 0x10, bitmask: 0x7F
11:29107f
#register: 42, data: 0x24, bitmask: 0x3F
12:2a243f
#register: 45, data: 0x00, bitmask: 0xFF
13:2d00ff
#register: 46, data: 0x00, bitmask: 0xFF
14:2e00ff
#register: 47, data: 0x14, bitmask: 0x3F
15:2f143f
#register: 48, data: 0x2F, bitmask: 0xFF
16:302fff
#register: 49, data: 0x10, bitmask: 0xFF
17:3110ff
#register: 50, data: 0xC5, bitmask: 0xFF
18:32c5ff
#register: 51, data: 0x07, bitmask: 0xFF
19:3307ff
#register: 52, data: 0x10, bitmask: 0xFF
1a:3410ff
#register: 53, data: 0x00, bitmask: 0xFF
1b:3500ff
#register: 54, data: 0x04, bitmask: 0xFF
1c:3604ff
#register: 55, data: 0x00, bitmask: 0xFF
1d:3700ff
#register: 56, data: 0x00, bitmask: 0xFF
1e:3800ff
#register: 57, data: 0x00, bitmask: 0xFF
1f:3900ff
#register: 58, data: 0x00, bitmask: 0xFF
20:3a00ff
#register: 59, data: 0x01, bitmask: 0xFF
21:3b01ff
#register: 60, data: 0x00, bitmask: 0xFF
22:3c00ff
#register: 61, data: 0x00, bitmask: 0xFF
23:3d00ff
#register: 62, data: 0x00, bitmask: 0x3F
24:3e003f
#register: 63, data: 0x10, bitmask: 0xFF
25:3f10ff
#register: 64, data: 0x99, bitmask: 0xFF
26:4099ff
#register: 65, data: 0x07, bitmask: 0xFF
27:4107ff
#register: 66, data: 0x0C, bitmask: 0xFF
28:420cff
#register: 67, data: 0x00, bitmask: 0xFF
29:4300ff
#register: 68, data: 0x00, bitmask: 0xFF
2a:4400ff
#register: 69, data: 0x00, bitmask: 0xFF
2b:4500ff
#register: 70, data: 0x05, bitmask: 0xFF
2c:4605ff
#register: 71, data: 0x00, bitmask: 0xFF
2d:4700ff
#register: 72, data: 0x00, bitmask: 0xFF
2e:4800ff
#register: 73, data: 0x00, bitmask: 0x3F
2f:49003f
#register: 74, data: 0x10, bitmask: 0xFF
30:4a10ff
#register: 75, data: 0x00, bitmask: 0xFF
31:4b00ff
#register: 76, data: 0x2E, bitmask: 0xFF
32:4c2eff
#register: 77, data: 0x00, bitmask: 0xFF
33:4d00ff
#register: 78, data: 0x00, bitmask: 0xFF
34:4e00ff
#register: 79, data: 0x00, bitmask: 0xFF
35:4f00ff
#register: 80, data: 0x00, bitmask: 0xFF
36:5000ff
#register: 81, data: 0x01, bitmask: 0xFF
37:5101ff
#register: 82, data: 0x00, bitmask: 0xFF
38:5200ff
#register: 83, data: 0x00, bitmask: 0xFF
39:5300ff
#register: 84, data: 0x00, bitmask: 0x3F
3a:54003f
#register: 85, data: 0x10, bitmask: 0xFF
3b:5510ff
#register: 86, data: 0xCC, bitmask: 0xFF
3c:56ccff
#register: 87, data: 0x02, bitmask: 0xFF
3d:5702ff
#register: 88, data: 0x10, bitmask: 0xFF
3e:5810ff
#register: 89, data: 0x00, bitmask: 0xFF
3f:5900ff
#register: 90, data: 0x00, bitmask: 0xFF
40:5a00ff
#register: 91, data: 0x00, bitmask: 0xFF
41:5b00ff
#register: 92, data: 0x05, bitmask: 0xFF
42:5c05ff
#register: 93, data: 0x00, bitmask: 0xFF
43:5d00ff
#register: 94, data: 0x00, bitmask: 0xFF
44:5e00ff
#register: 95, data: 0x00, bitmask: 0x3F
45:5f003f
#register: 97, data: 0x00, bitmask: 0xFF
46:6100ff
#register: 98, data: 0x2E, bitmask: 0xFF
47:622eff
#register: 99, data: 0x00, bitmask: 0xFF
48:6300ff
#register: 100, data: 0x00, bitmask: 0xFF
49:6400ff
#register: 101, data: 0x00, bitmask: 0xFF
4a:6500ff
#register: 102, data: 0x00, bitmask: 0xFF
4b:6600ff
#register: 103, data: 0x01, bitmask: 0xFF
4c:6701ff
#register: 104, data: 0x00, bitmask: 0xFF
4d:6800ff
#register: 105, data: 0x00, bitmask: 0xFF
4e:6900ff
#register: 106, data: 0x80, bitmask: 0xBF
4f:6a80bf
#register: 107, data: 0x00, bitmask: 0xFF
50:6b00ff
#register: 108, data: 0x00, bitmask: 0xFF
51:6c00ff
#register: 109, data: 0x00, bitmask: 0xFF
52:6d00ff
#register: 110, data: 0x40, bitmask: 0xFF
53:6e40ff
#register: 111, data: 0x00, bitmask: 0xFF
54:6f00ff
#register: 112, data: 0x00, bitmask: 0xFF
55:7000ff
#register: 113, data: 0x00, bitmask: 0xFF
56:7100ff
#register: 114, data: 0x40, bitmask: 0xFF
57:7240ff
#register: 115, data: 0x00, bitmask: 0xFF
58:7300ff
#register: 116, data: 0x80, bitmask: 0xFF
59:7480ff
#register: 117, data: 0x00, bitmask: 0xFF
5a:7500ff
#register: 118, data: 0x40, bitmask: 0xFF
5b:7640ff
#register: 119, data: 0x00, bitmask: 0xFF
5c:7700ff
#register: 120, data: 0x00, bitmask: 0xFF
5d:7800ff
#register: 121, data: 0x00, bitmask: 0xFF
5e:7900ff
#register: 122, data: 0x40, bitmask: 0xFF
5f:7a40ff
#register: 123, data: 0x00, bitmask: 0xFF
60:7b00ff
#register: 124, data: 0x00, bitmask: 0xFF
61:7c00ff
#register: 125, data: 0x00, bitmask: 0xFF
62:7d00ff
#register: 126, data: 0x00, bitmask: 0xFF
63:7e00ff
#register: 127, data: 0x00, bitmask: 0xFF
64:7f00ff
#register: 128, data: 0x00, bitmask: 0xFF
65:8000ff
#register: 129, data: 0x00, bitmask: 0x0F
66:81000f
#register: 130, data: 0x00, bitmask: 0x0F
67:82000f
#register: 131, data: 0x00, bitmask: 0xFF
68:8300ff
#register: 132, data: 0x00, bitmask: 0xFF
69:8400ff
#register: 133, data: 0x00, bitmask: 0xFF
6a:8500ff
#register: 134, data: 0x00, bitmask: 0xFF
6b:8600ff
#register: 135, data: 0x00, bitmask: 0xFF
6c:8700ff
#register: 136, data: 0x00, bitmask: 0xFF
6d:8800ff
#register: 137, data: 0x00, bitmask: 0xFF
6e:8900ff
#register: 138, data: 0x00, bitmask: 0xFF
6f:8a00ff
#register: 139, data: 0x00, bitmask: 0xFF
70:8b00ff
#register: 140, data: 0x00, bitmask: 0xFF
71:8c00ff
#register: 141, data: 0x00, bitmask: 0xFF
72:8d00ff
#register: 142, data: 0x00, bitmask: 0xFF
73:8e00ff
#register: 143, data: 0x00, bitmask: 0xFF
74:8f00ff
#register: 144, data: 0x00, bitmask: 0xFF
75:9000ff
#register: 152, data: 0x00, bitmask: 0xFF
76:9800ff
#register: 153, data: 0x00, bitmask: 0xFF
77:9900ff
#register: 154, data: 0x00, bitmask: 0xFF
78:9a00ff
#register: 155, data: 0x00, bitmask: 0xFF
79:9b00ff
#register: 156, data: 0x00, bitmask: 0xFF
7a:9c00ff
#register: 157, data: 0x00, bitmask: 0xFF
7b:9d00ff
#register: 158, data: 0x00, bitmask: 0x0F
7c:9e000f
#register: 159, data: 0x00, bitmask: 0x0F
7d:9f000f
#register: 160, data: 0x00, bitmask: 0xFF
7e:a000ff
#register: 161, data: 0x00, bitmask: 0xFF
7f:a100ff
#register: 162, data: 0x00, bitmask: 0xFF
80:a200ff
#register: 163, data: 0x00, bitmask: 0xFF
81:a300ff
#register: 164, data: 0x00, bitmask: 0xFF
82:a400ff
#register: 165, data: 0x00, bitmask: 0xFF
83:a500ff
#register: 166, data: 0x00, bitmask: 0xFF
84:a600ff
#register: 167, data: 0x00, bitmask: 0xFF
85:a700ff
#register: 168, data: 0x00, bitmask: 0xFF
86:a800ff
#register: 169, data: 0x00, bitmask: 0xFF
87:a900ff
#register: 170, data: 0x00, bitmask: 0xFF
88:aa00ff
#register: 171, data: 0x00, bitmask: 0xFF
89:ab00ff
#register: 172, data: 0x00, bitmask: 0xFF
8a:ac00ff
#register: 173, data: 0x00, bitmask: 0xFF
8b:ad00ff
#register: 174, data: 0x00, bitmask: 0xFF
8c:ae00ff
#register: 175, data: 0x00, bitmask: 0xFF
8d:af00ff
#register: 176, data: 0x00, bitmask: 0xFF
8e:b000ff
#register: 177, data: 0x00, bitmask: 0xFF
8f:b100ff
#register: 178, data: 0x00, bitmask: 0xFF
90:b200ff
#register: 179, data: 0x00, bitmask: 0xFF
91:b300ff
#register: 180, data: 0x00, bitmask: 0xFF
92:b400ff
#register: 181, data: 0x00, bitmask: 0x0F
93:b5000f
#register: 182, data: 0x00, bitmask: 0xFF
94:b600ff
#register: 183, data: 0x00, bitmask: 0xFF
95:b700ff
#register: 184, data: 0x00, bitmask: 0xFF
96:b800ff
#register: 185, data: 0x00, bitmask: 0xFF
97:b900ff
#register: 186, data: 0x00, bitmask: 0xFF
98:ba00ff
#register: 187, data: 0x00, bitmask: 0xFF
99:bb00ff
#register: 188, data: 0x00, bitmask: 0xFF
9a:bc00ff
#register: 189, data: 0x00, bitmask: 0xFF
9b:bd00ff
#register: 190, data: 0x00, bitmask: 0xFF
9c:be00ff
#register: 191, data: 0x00, bitmask: 0xFF
9d:bf00ff
#register: 192, data: 0x00, bitmask: 0xFF
9e:c000ff
#register: 193, data: 0x00, bitmask: 0xFF
9f:c100ff
#register: 194, data: 0x00, bitmask: 0xFF
a0:c200ff
#register: 195, data: 0x00, bitmask: 0xFF
a1:c300ff
#register: 196, data: 0x00, bitmask: 0xFF
a2:c400ff
#register: 197, data: 0x00, bitmask: 0xFF
a3:c500ff
#register: 198, data: 0x00, bitmask: 0xFF
a4:c600ff
#register: 199, data: 0x00, bitmask: 0xFF
a5:c700ff
#register: 200, data: 0x00, bitmask: 0xFF
a6:c800ff
#register: 201, data: 0x00, bitmask: 0xFF
a7:c900ff
#register: 202, data: 0x00, bitmask: 0xFF
a8:ca00ff
#register: 203, data: 0x00, bitmask: 0x0F
a9:cb000f
#register: 204, data: 0x00, bitmask: 0xFF
aa:cc00ff
#register: 205, data: 0x00, bitmask: 0xFF
ab:cd00ff
#register: 206, data: 0x00, bitmask: 0xFF
ac:ce00ff
#register: 207, data: 0x00, bitmask: 0xFF
ad:cf00ff
#register: 208, data: 0x00, bitmask: 0xFF
ae:d000ff
#register: 209, data: 0x00, bitmask: 0xFF
af:d100ff
#register: 210, data: 0x00, bitmask: 0xFF
b0:d200ff
#register: 211, data: 0x00, bitmask: 0xFF
b1:d300ff
#register: 212, data: 0x00, bitmask: 0xFF
b2:d400ff
#register: 213, data: 0x00, bitmask: 0xFF
b3:d500ff
#register: 214, data: 0x00, bitmask: 0xFF
b4:d600ff
#register: 215, data: 0x00, bitmask: 0xFF
b5:d700ff
#register: 216, data: 0x00, bitmask: 0xFF
b6:d800ff
#register: 217, data: 0x00, bitmask: 0xFF
b7:d900ff
#register: 242, data: 0x00, bitmask: 0x02
b8:f20002
#register: 255, data: 1, bitmask: 0xFF
b9:ff01ff
#register: 31, data: 0x00, bitmask: 0xFF
ba:1f00ff
#register: 32, data: 0x00, bitmask: 0xFF
bb:2000ff
#register: 33, data: 0x01, bitmask: 0xFF
bc:2101ff
#register: 34, data: 0x00, bitmask: 0xFF
bd:2200ff
#register: 35, data: 0x00, bitmask: 0xFF
be:2300ff
#register: 36, data: 0x90, bitmask: 0xFF
bf:2490ff
#register: 37, data: 0x31, bitmask: 0xFF
c0:2531ff
#register: 38, data: 0x00, bitmask: 0xFF
c1:2600ff
#register: 39, data: 0x00, bitmask: 0xFF
c2:2700ff
#register: 40, data: 0x01, bitmask: 0xFF
c3:2801ff
#register: 41, data: 0x00, bitmask: 0xFF
c4:2900ff
#register: 42, data: 0x00, bitmask: 0xFF
c5:2a00ff
#register: 43, data: 0x00, bitmask: 0x0F
c6:2b000f
#register: 47, data: 0x00, bitmask: 0xFF
c7:2f00ff
#register: 48, data: 0x00, bitmask: 0xFF
c8:3000ff
#register: 49, data: 0x01, bitmask: 0xFF
c9:3101ff
#register: 50, data: 0x00, bitmask: 0xFF
ca:3200ff
#register: 51, data: 0x00, bitmask: 0xFF
cb:3300ff
#register: 52, data: 0x90, bitmask: 0xFF
cc:3490ff
#register: 53, data: 0x31, bitmask: 0xFF
cd:3531ff
#register: 54, data: 0x00, bitmask: 0xFF
ce:3600ff
#register: 55, data: 0x00, bitmask: 0xFF
cf:3700ff
#register: 56, data: 0x01, bitmask: 0xFF
d0:3801ff
#register: 57, data: 0x00, bitmask: 0xFF
d1:3900ff
#register: 58, data: 0x00, bitmask: 0xFF
d2:3a00ff
#register: 59, data: 0x00, bitmask: 0x0F
d3:3b000f
#register: 63, data: 0x00, bitmask: 0xFF
d4:3f00ff
#register: 64, data: 0x00, bitmask: 0xFF
d5:4000ff
#register: 65, data: 0x01, bitmask: 0xFF
d6:4101ff
#register: 66, data: 0x00, bitmask: 0xFF
d7:4200ff
#register: 67, data: 0x00, bitmask: 0xFF
d8:4300ff
#register: 68, data: 0x90, bitmask: 0xFF
d9:4490ff
#register: 69, data: 0x31, bitmask: 0xFF
da:4531ff
#register: 70, data: 0x00, bitmask: 0xFF
db:4600ff
#register: 71, data: 0x00, bitmask: 0xFF
dc:4700ff
#register: 72, data: 0x01, bitmask: 0xFF
dd:4801ff
#register: 73, data: 0x00, bitmask: 0xFF
de:4900ff
#register: 74, data: 0x00, bitmask: 0xFF
df:4a00ff
#register: 75, data: 0x00, bitmask: 0x0F
e0:4b000f
#register: 79, data: 0x00, bitmask: 0xFF
e1:4f00ff
#register: 80, data: 0x00, bitmask: 0xFF
e2:5000ff
#register: 81, data: 0x00, bitmask: 0xFF
e3:5100ff
#register: 82, data: 0x00, bitmask: 0xFF
e4:5200ff
#register: 83, data: 0x00, bitmask: 0xFF
e5:5300ff
#register: 84, data: 0x90, bitmask: 0xFF
e6:5490ff
#register: 85, data: 0x31, bitmask: 0xFF
e7:5531ff
#register: 86, data: 0x00, bitmask: 0xFF
e8:5600ff
#register: 87, data: 0x00, bitmask: 0xFF
e9:5700ff
#register: 88, data: 0x01, bitmask: 0xFF
ea:5801ff
#register: 89, data: 0x00, bitmask: 0xFF
eb:5900ff
#register: 90, data: 0x00, bitmask: 0xFF
ec:5a00ff
#register: 91, data: 0x00, bitmask: 0x0F
ed:5b000f
#register: 255, data: 0, bitmask: 0xFF
ee:ff00ff
